<svg width="38" height="39" viewBox="0 0 38 39" fill="none" xmlns="http://www.w3.org/2000/svg">
<ellipse cx="32.515" cy="12" rx="4.202" ry="4" stroke="#E91E63" stroke-width="2"/>
<path d="M20.96 11L7.982 17.177C6.89996 17.6794 6.09487 18.6338 5.782 19.785L1 38" stroke="#E91E63" stroke-width="2"/>
<path d="M25.162 19L14.657 24L19.91 38" stroke="#E91E63" stroke-width="2"/>
<path d="M31.465 31L20.96 11L7.303 2" stroke="#E91E63" stroke-width="2" stroke-linecap="square"/>
</svg>
