<svg width="47" height="47" viewBox="0 0 47 47" fill="none" xmlns="http://www.w3.org/2000/svg">
<g clip-path="url(#clip0_7_9)">
<path d="M31.1045 44.5843C30.0622 44.5368 29.0278 44.3794 28.0186 44.1147C26.6826 43.7775 25.3135 43.5879 23.9361 43.5493C22.545 43.5838 21.161 43.7604 19.8057 44.0763C17.199 44.6034 14.947 45.0347 12.8674 42.7922C9.45571 39.1122 4.96113 33.4963 4.96113 27.1618C4.93912 22.2238 6.57591 17.4214 9.60905 13.5247C12.0336 10.4676 15.2153 11.2343 18.5886 12.0488C20.3123 12.5389 22.0881 12.822 23.8786 12.8922C25.6713 12.8218 27.4482 12.5289 29.1686 12.0201C32.494 11.1959 35.6278 10.4101 38.0428 13.4001C41.1622 17.3106 42.8527 22.1691 42.8345 27.1713C42.8345 32.0588 40.199 37.2243 34.7845 42.9743C34.3279 43.4976 33.7611 43.9133 33.1249 44.1917C32.4886 44.47 31.7987 44.6041 31.1045 44.5843ZM23.9361 42.5909C25.3975 42.629 26.8502 42.8283 28.2678 43.1851C30.6636 43.7026 32.4078 44.0859 34.0753 42.313C39.2695 36.7451 41.8282 31.8001 41.8282 27.1618C41.8584 22.3849 40.2595 17.7404 37.2953 13.9943C35.2732 11.4834 32.6761 12.1255 29.3986 12.9401C27.603 13.4677 25.7488 13.7703 23.8786 13.8409C22.014 13.7742 20.164 13.4847 18.3682 12.9784C15.0332 12.1734 12.4074 11.5409 10.3661 14.1093C7.4628 17.8387 5.89678 22.4355 5.91946 27.1618C5.91946 33.1513 10.2703 38.5755 13.5286 42.1309C15.2536 43.9997 17.0649 43.6355 19.5757 43.0893C21.0081 42.7732 22.4694 42.6062 23.9361 42.5909V42.5909Z" fill="#E91E63" stroke="#E91E63"/>
<path d="M24.7028 13.5918H22.4699L22.4028 13.1893C22.4028 13.1126 21.1091 5.36926 19.8728 2.82009C19.8208 2.72625 19.7935 2.62072 19.7935 2.51342C19.7935 2.40613 19.8208 2.3006 19.8728 2.20676C20.122 1.79467 20.9941 1.54551 22.4891 1.46884H22.8724L22.9778 1.83301C23.8307 4.77509 24.5878 12.7484 24.6261 13.0838L24.7028 13.5918ZM23.2845 12.6334H23.6486C23.3396 9.21746 22.8501 5.82022 22.1824 2.45592C21.7361 2.48649 21.2935 2.55705 20.8599 2.66676C21.962 5.20634 22.9778 11.033 23.2845 12.6334Z" fill="#E91E63" stroke="#E91E63"/>
<path d="M27.5107 10.9659C26.3469 10.9881 25.1848 10.8658 24.0511 10.6018L23.4474 10.4389L23.7636 9.8926C25.1988 7.56391 27.2085 5.64328 29.5999 4.31511C30.7103 3.80341 31.9169 3.53366 33.1395 3.52375C34.3622 3.51384 35.5729 3.76399 36.6915 4.25761C37.4582 4.59302 38.474 5.14886 38.5124 6.09761C38.5507 7.04636 37.3528 8.2251 34.564 9.6626C32.3302 10.5865 29.9272 11.0305 27.5107 10.9659V10.9659ZM24.952 9.81594C27.4915 10.2664 31.9478 9.93094 34.1328 8.80969C37.1324 7.26677 37.5636 6.46177 37.554 6.12636C37.5445 5.79094 37.1036 5.48427 36.3082 5.16802C35.3239 4.72114 34.2554 4.48995 33.1745 4.48995C32.0935 4.48995 31.025 4.72114 30.0407 5.16802C28.004 6.29754 26.2609 7.88958 24.952 9.81594V9.81594Z" fill="#E91E63" stroke="#E91E63"/>
</g>
<defs>
<clipPath id="clip0_7_9">
<rect width="46" height="46" fill="white" transform="translate(0.936157 0.328491)"/>
</clipPath>
</defs>
</svg>
